<?xml version="1.0" encoding="utf-8"?>
<!-- Generator: Adobe Illustrator 18.1.1, SVG Export Plug-In . SVG Version: 6.00 Build 0)  -->
<svg version="1.1" id="Layer_1" xmlns="http://www.w3.org/2000/svg" xmlns:xlink="http://www.w3.org/1999/xlink" x="0px" y="0px"
	 viewBox="0 0 17 17" enable-background="new 0 0 17 17" xml:space="preserve">
<path fill="#ffffff" d="M8.5,0C3.8,0,0,3.8,0,8.5C0,13.2,3.8,17,8.5,17c4.7,0,8.5-3.8,8.5-8.5C17,3.8,13.2,0,8.5,0z M8.5,16
	C4.4,16,1,12.6,1,8.5C1,4.4,4.4,1,8.5,1C12.7,1,16,4.4,16,8.5C16,12.6,12.7,16,8.5,16z"/>
<g>
	<polygon fill="#ffffff" points="10.3,11.4 6.7,11.4 4.4,5.6 12.7,5.6 	"/>
	<polygon fill="#ffffff" points="14.6,7.4 12.7,6.4 10.9,10.8 12,11.4 	"/>
	<polygon fill="#ffffff" points="2.4,7.4 4.3,6.4 6.1,10.8 5.1,11.4 	"/>
</g>
</svg>
